%YAML 1.1
%TAG !u! tag:unity3d.com,2011:
--- !u!1045 &1
EditorBuildSettings:
  m_ObjectHideFlags: 0
  serializedVersion: 2
  m_Scenes:
  - enabled: 1
    path: Assets/Scenes/MainMenu.unity
    guid: 6a1bb5be90544044da5f969b512b1e5f
  - enabled: 1
    path: Assets/Scenes/Prototype.unity
    guid: 9d9c5af2452876248b8994f75c42d4d9
  m_configObjects: {}
